oeOf0vh_-61572078

LfjZpKb8-06127569
1xlnG9aZ-12173666
kp8tWE7k-82817829
iJceaADS-90896033

CY_FsG7n-04886379

L9sIsf6I-28460211

BHxDtR09-72202605

AwmwUvS0-66023693

gXP_va81-29720552

zFTyt6fg-06584389
F0oI6Me_-82151360

m3M9oY1S-27425020

AAMdJw31-49799142

zbjaoKEG-43977189

6lv0EJFk-49436900

wgn4k0oF-41968274

dDtWkmdB-35654039

N_u8jtLg-25788432

9AtOr4O9-15428216

cIsOSkSO-53810405
1c3i8KpV-91045515

D2p9yrtH-48877765

ADRpkOuB-78356388
6RY08Nw8-45428392
x4rqT_KP-97356337

lcOb2R0Z-97091043

5VVRsTIc-92716543

yJQUjqiP-98321992

WqokD14l-26875215

gMyaEO9J-82391676

ZsOMjCZK-44967662
