25

3
Jeremy
James
Joshua
3 1 2
2 1 3
1 2 3
2 3 1
3 1 2
1 2 3
3 1 2
3 1 2

3
Jose
Juan
Yennefer
2 3 1
1 3 2
2 3 1

3
Astrid
Freja
Ludvig
3 1 2
2 3 1
2 3 1
3 1 2

4
Sub Zero
Scorpion
Rain
Noob Saibot
3 4 2 1
4 1 3 2
1 3 4 2
3 4 1 2

2
Alice
Bob
1 2
1 2
2 1
1 2
2 1
2 1
2 1
2 1
1 2
2 1

4
Chun Li
Ken
Ryu
Dhal Sim
4 1 3 2

3
Ice Spice
Nicki Minaj
Cardi B
2 3 1
2 1 3
2 3 1
2 3 1
1 2 3
1 2 3

4
Dua Lipa
Dababy
Lizzo
NLE Choppa
3 2 1 4

3
Shawn Carter
Blue Ivy
Beyonce Knowles
3 1 2
2 1 3
2 1 3
3 1 2
1 3 2

3
Tupac Shakur
Andre Young
Snoop Dogg
2 3 1
3 1 2
2 3 1

4
Oleksandr Usyk
Tyson Fury
Anthony Joshua
Andy Ruiz Jr.
1 2 3 4
1 4 2 3

4
Patrick Mahomes
Tom Brady
Peyton Manning
Drew Brees
4 3 2 1
4 1 3 2
2 4 3 1
2 1 3 4
4 2 3 1
4 3 2 1
1 2 3 4

2
Alice
Bob
1 2

3
Cersei 
Jamie
Tyrion
1 2 3

2
Bob
Alice
1 2
2 1
1 2
1 2

5
Mickey Mouse
Donald Duck
Goofy ahh
Pluto
Minnie
1 5 3 4 2
5 1 3 4 2
3 2 5 4 1

4
Popeye
Chick Fil A
Mcdonalds
Jack in the Box
3 4 2 1
2 4 1 3
1 3 2 4
2 1 3 4
4 2 1 3
3 2 1 4
4 1 2 3
3 4 2 1
2 4 1 3
2 3 1 4

5
Austin Powers
James Bond
Dr Evil
Goldfinger
Jason Bourne
4 2 5 3 1
3 5 2 4 1
1 5 4 3 2
3 1 4 2 5
5 4 3 1 2
2 1 4 3 5
3 5 1 2 4
3 1 4 5 2
5 1 3 4 2

5
Mansa Musa
Jeffrey Bezos
Elon Musk
Bill Gates
Warren Buffett
1 2 3 4 5

4
Jeremy
James
Juan
Jack
4 2 1 3
1 2 3 4
3 4 2 1
3 1 2 4
4 1 2 3
1 4 3 2
1 3 4 2

5
Mansa Musa
Jeffrey Bezos
Elon Musk
Bill Gates
Warren Buffett
2 3 5 4 1
4 3 5 1 2
5 3 4 2 1
1 2 3 5 4
3 2 5 1 4

5
Mansa Musa
Jeffrey Bezos
Elon Musk
Bill Gates
Warren Buffett
2 3 5 4 1
1 2 5 4 3
4 5 2 3 1
2 4 1 3 5
4 1 2 3 5
5 2 1 4 3
1 2 5 4 3
2 1 4 5 3
4 3 1 2 5
3 5 2 1 4

5
Mansa Musa
Jeffrey Bezos
Elon Musk
Bill Gates
Warren Buffett
3 1 4 5 2
5 2 1 3 4
2 5 3 4 1
4 1 5 2 3
4 1 5 3 2
5 3 4 2 1
5 1 2 3 4
5 1 2 4 3
5 4 1 2 3
5 1 3 2 4

4
Jack Sparrow
Edward Scissorhands
Mad Hatter
Willy Wonka
4 1 3 2
1 3 2 4
4 2 1 3

4
Jack Sparrow
Edward Scissorhands
Mad Hatter
Willy Wonka
1 4 2 3
3 2 1 4
3 4 2 1
