20

3
eazdu8T_-20172816
d7QwYnxA-79912077
IM6R_9un-39597572
1 3 2
3 1 2
3 2 1
2 1 3
3 1 2

3
z6mBMcVo-03740982
SX4T8dCd-85348836
brJ33rq9-10049895
1 2 3
1 3 2
3 2 1
1 3 2
3 2 1
2 1 3

6
JvpBMbpA-41846834
rnm7jibt-63400977
UAIDdmcG-09826006
QRRHG5jo-83071979
4p8Yop6J-95357845
p8LoHmZE-02505624
5 3 2 4 6 1
4 6 2 3 1 5
5 3 4 2 6 1
6 5 3 2 4 1
1 6 4 2 3 5
6 4 2 1 3 5
5 6 4 3 2 1
2 3 4 6 1 5

4
88NQDsQd-61790411
5wPcFzge-45328490
KGQxrrhi-99858609
hGvCuEXE-55883236
2 3 1 4
2 4 3 1
1 4 3 2
3 1 2 4
1 4 3 2
2 3 1 4
1 3 4 2
2 3 1 4
3 2 1 4
4 1 3 2

3
2n8ia7Kb-43091209
G50LsUpj-91333050
dcko7n_9-21472101
2 1 3
2 3 1
1 2 3
3 2 1
1 2 3
2 3 1
1 3 2

1
ya4DZgzf-33863592
1
1
1
1
1
1
1
1
1

8
821ys9ii-11910192
qzplGnDh-54565625
wkCNC_fh-02360334
UA_GVlVx-19926133
sGYFC2Qk-13742230
OkBLtykY-90985081
kVb3BT7P-29933189
MwIywIeK-37214066
2 4 8 5 3 6 7 1
3 4 6 1 7 8 2 5
3 7 5 6 8 4 2 1
6 4 2 3 8 5 7 1
4 3 1 6 8 7 2 5
7 6 3 2 8 5 4 1

2
hzO5z5fk-98147059
SI0T26KE-61352318
1 2
2 1
1 2
2 1
2 1
2 1

1
dhg5cJwf-15412994
1
1
1
1
1
1
1
1

1
mIREZ4JC-97021899
1
1
1
1
1
1
1

1
fQSNewCw-55237893
1
1
1
1
1
1
1

3
6A5LFqaj-24705651
Udl62czH-33543690
lERzNiHx-20995554
1 3 2
2 1 3
1 2 3
2 3 1
3 2 1
3 2 1
1 3 2
3 1 2
2 1 3

5
57UTey0l-80869515
mDnwHIqd-41184209
zSfeWzc3-52807018
B1EvaMF4-95156876
zwNfG7Mj-17505126
1 3 5 4 2
4 2 3 1 5
1 2 4 3 5
4 3 1 2 5
1 4 3 5 2
4 1 5 3 2

3
zkX_6BNz-26922671
_Q0SzIHp-11249444
_wkmqVXy-84014733
2 3 1
1 3 2
1 2 3
1 2 3
1 3 2
3 1 2
2 1 3
3 1 2
3 1 2

2
Ww6XUj8B-18287837
WQWHxz1d-30655327
1 2
1 2
1 2
2 1
2 1
1 2

5
H0q95FS7-72752804
TL6VXcyo-22023717
EcF2M4qg-52365816
LFMOrOe7-28031124
VkrFyIgB-20894545
4 1 2 5 3
4 3 1 2 5
3 1 5 2 4
5 3 4 2 1
3 2 5 4 1
4 3 1 5 2
5 4 1 2 3

8
l7nZ98Gs-17218510
lmRL6uNQ-59358216
HfWSkKUE-62840731
q55bIoxx-40469315
dAxLTKsv-90315218
dSGa4Vqq-15999337
ZD4QjF4K-89820710
CkeA1AJX-69590800
1 5 2 8 6 7 4 3
8 4 1 5 3 2 7 6
5 2 7 8 4 1 6 3
8 5 3 6 1 7 2 4
4 6 7 5 1 3 2 8

1
eJBDV3SL-11211918
1
1
1
1
1
1
1
1
1
1

5
gKzbyeqK-72414152
Je64_r7I-37643942
AdKWUEBr-44816724
emCPqruv-98108217
FRdLW3uB-95013106
2 3 1 5 4
5 4 1 3 2
3 1 4 2 5
2 3 4 1 5
5 2 3 4 1
1 3 4 5 2
1 2 5 4 3
5 4 1 3 2

6
s1EEP_JR-71852860
8iNID2pv-14227633
JBqM8rr8-65703671
VPT24Rn7-58374201
hzdZaLuV-41802092
pWXd73Wn-71808896
3 1 5 6 4 2
4 3 1 5 2 6
6 4 1 2 5 3
4 6 3 2 5 1
4 5 2 3 1 6
1 4 2 3 6 5
2 4 1 3 5 6
2 4 3 1 5 6
