20

4
Monk
Lee
Kevin
Jake
3 4 2 1
3 1 4 2
4 1 2 3
3 4 2 1
3 4 2 1
4 2 1 3
3 2 4 1

6
Arthur
Alfie
Thomas
Polly
Michael
John
3 4 2 5 6 1
1 6 5 3 2 4
3 1 4 2 6 5

3
Thomas
Chelsea
Bill
3 1 2
2 3 1
2 1 3

8
Lily
Adam
Thomas
Mike
John
Peter
Michael
Polly
3 8 2 7 6 1 5 4
6 1 7 3 5 8 4 2
6 5 7 4 1 2 3 8

1
Thomas Shelby
1
1
1
1

4
Bob Marley
Elvis Presley
Martin Luther King Jr.
Eminem
1 2 3 4
1 3 4 2
2 1 3 4
2 4 1 3
4 3 1 2
3 4 1 2

6
Smoothie
Coca-Cola
Gong Cha
Chipotle
Cabo Bobs
Whataburger
4 1 3 6 5 2
3 2 5 6 1 4
3 4 2 1 5 6
2 5 1 6 4 3
1 6 5 3 2 4
5 1 6 4 2 3
2 4 3 1 5 6
3 6 1 4 5 2
2 5 1 6 4 3
1 2 3 6 5 4
6 4 5 3 1 2
6 2 4 3 1 5
1 4 2 5 6 3
3 6 1 5 4 2
1 6 2 5 4 3
6 2 3 1 4 5
3 4 2 1 5 6
5 6 4 3 2 1
3 4 5 6 1 2
4 5 3 1 2 6
4 6 2 1 3 5
6 4 2 5 1 3
2 4 6 3 5 1
3 4 1 2 6 5
3 6 1 2 4 5
1 4 6 3 2 5
2 6 4 1 5 3
5 6 2 1 4 3
2 1 3 5 6 4

8
Ruby
Sapphire
Emerald
Diamond
Gold
Silver
Copper
Amethyst
8 5 7 4 6 1 3 2
8 3 7 5 1 2 6 4
5 2 4 8 1 6 7 3
8 4 3 2 6 7 1 5
6 5 3 4 7 8 1 2
3 4 1 7 6 8 5 2
5 6 1 8 4 3 7 2
6 8 7 5 4 3 1 2
8 3 2 4 7 5 1 6
2 4 8 1 3 5 7 6
7 3 4 6 8 1 5 2
1 6 5 7 3 2 8 4
8 4 3 2 7 6 1 5
3 6 4 1 5 8 2 7
7 4 1 5 8 6 3 2
3 6 4 1 5 7 8 2
2 5 7 4 3 8 1 6

4
J Cole
Michael Jackson
Elvis Presley
Frank Sinatra
1 2 4 3

8
Math
Bet
John
Kibble
Mark
Kevin
Chelsea
Plum
3 8 2 7 6 1 5 4
6 1 7 3 5 8 4 2
6 5 7 4 1 2 3 8
1 2 6 3 4 8 7 5
7 4 1 5 2 8 3 6
5 7 2 4 6 8 3 1
6 2 8 7 1 4 5 3
7 6 3 4 1 5 2 8

5
MinuteMaid
Kool Aid
Oreos
Lipton
Nesquik
4 1 5 3 2
4 3 1 5 2
5 3 4 1 2
4 5 1 2 3
4 1 5 3 2
2 4 3 5 1

4
Christine
Kevin
Carmen
Chelsea
3 4 2 1
3 1 4 2
4 1 2 3
3 4 2 1
3 4 2 1
4 2 1 3

7
Christine
Chelsea
Karen
Carmen
Kevin
Bobby
John
4 1 5 7 6 2 3
6 2 3 5 1 4 7
7 6 5 1 4 2 3
3 1 4 2 5 6 7
6 4 7 3 2 5 1
1 4 3 2 6 7 5
2 6 7 5 1 3 4

4
Jake
Kevin
Mia
Garret
1 3 2 4
3 2 4 1
1 3 4 2
1 2 4 3
3 2 1 4
4 1 3 2
4 1 3 2

3
Chelsea
Kevin
Carmen
3 2 1
1 2 3
3 1 2
1 2 3
2 1 3
2 1 3

2
Chelsea
Kevin
1 2
1 2
2 1
1 2
1 2
1 2
2 1
2 1
2 1

2
Michael Jackson
Elvis Presley
2 1
1 2
1 2
2 1

2
Carmen
Chelsea
2 1
1 2
2 1
1 2

4
Jayden
Luke
Garret
Kevin
3 2 4 1
2 4 1 3
4 2 1 3
4 3 2 1
1 2 3 4

3
Jake
John
Bob
2 3 1
3 2 1
3 2 1
3 2 1
2 1 3
2 3 1
1 2 3
